Lecture 8: Introduction to QTL Analysis – HKI Courses
…
[1] 5536    2

Show the code

# print 
gwascatalog %>% 
select(`DISEASE/TRAIT`, REGION) %>% 
filter(grepl("cancer",`DISEASE/TRAIT`)) %>% 
count(REGION) %>% 
arrange(desc(n))  

# A tibble: 816 × 2
   REGION       n
   <chr>    <int>
 1 <NA>      1012
 2 8q24.21    529
 3 5p15.33    230
 4 11q13.3    157
 5 6p22.1     155
 6 6p21.33    154
 7 17q12      110
 8 6p21.32    106
 9 10q26.13    86
10 19q13.33    83
# ℹ 806 more rows
…
